{
    "antifeatures": {
        "Ads": "此應用程式含有廣告",
        "DisabledAlgorithm": "此應用程式含有弱安全簽名",
        "KnownVuln": "此應用程式包含一個已知的安全漏洞",
        "NSFW": "此應用程式含有不適宜宣揚或公開的內容",
        "NoSourceSince": "源碼不再可用，無法取得新版本",
        "NonFreeAdd": "此應用程式推廣非自由的附加元件",
        "NonFreeAssets": "此應用程式含有非自由的資源",
        "NonFreeDep": "此應用程式依賴其他非自由的應用程式",
        "NonFreeNet": "此應用程式推广或完全依赖于非免费网络服务",
        "Tracking": "此應用程式會跟蹤並回報你的活動",
        "UpstreamNonFree": "上游源碼並非完全自由"
    },
    "app_categories": {
        "Connectivity": "連線",
        "Development": "開發",
        "Games": "遊戲",
        "Graphics": "圖像",
        "Internet": "互聯網",
        "Money": "理財",
        "Multimedia": "多媒體",
        "Navigation": "導航",
        "Phone & SMS": "通話與短訊",
        "Reading": "閱讀",
        "Science & Education": "科學與教育",
        "Security": "安全性",
        "Sports & Health": "體育與健康",
        "System": "系統",
        "Theming": "主題",
        "Time": "時間",
        "Writing": "文書",
        "show_all_packages": "顯示全部 %d 個安裝包"
    },
    "index": {
        "download_fdroid": "下載 F-Droid",
        "gpg_signature": "PGP 簽章",
        "introduction": "F-Droid 是一個可以在 Android 上安裝的FOSS(Free and Open Source Software，自由及開放源碼軟件)的應用程式目錄。使用客戶端可在裝置上更輕鬆地瀏覽、安裝及跟進應用程式更新。",
        "screenshot": "F-Droid Android 應用程式截圖",
        "title": "F-Droid 是甚麼？"
    },
    "mirrors": {
        "cn": "中國大陸",
        "de": "德國",
        "indiana": "美國印第安納州",
        "se": "瑞典",
        "tw": "台灣",
        "ua": "烏克蘭"
    },
    "navigation": {
        "about": "關於",
        "apps": "應用程式",
        "contribute": "貢獻",
        "documentation": "文檔",
        "edit_on_gitlab": "在GitLab上編輯",
        "forum": "論壇",
        "issues": "問題",
        "news": "新聞",
        "translate_on_weblate": "在Weblate上翻譯"
    },
    "news": {
        "newer_posts": "←較新文章",
        "older_posts": "較舊文章 →",
        "posted_on": "發布於 {{ post_date }}"
    },
    "package": {
        "added_on": "於{{ package_added_date }}新增",
        "anti_features": "反功能",
        "anti_features_warning": "此應用程式有些你未必喜歡的功能。",
        "author": "作者",
        "build_log": "構建日誌",
        "build_metadata": "構建元數據",
        "donate": "捐赠",
        "download": "下載 {{ file_extension }}",
        "flattr": "Flattr",
        "gpg_signature": "PGP 簽章",
        "minimum_android_version": "此版本需要 Android {{ android_version }} 或更新版本。",
        "new_in_version": "新版本 {{ latest_version }}",
        "package_screenshot_alt": "程式截圖",
        "packages": "軟件包",
        "permissions": "權限",
        "signed_by_developer": "此套件包由原始開發者構建和簽署，並保證與<a href=\"{{ source_code_url }}\">此來源 Tarball</a> 相對應。",
        "signed_by_fdroid": "此軟件包由 F-Droid 構建及簽署，並確保和<a href=\"{{ source_code_url }}\">原始碼 tarball</a>保持一致。",
        "source_code": "原始碼",
        "suggest_downloading_via_fdroid": "雖然你可在下方選擇直接下載 APK 檔案，但你要注意這樣的安裝方式將不會收到更新通知，而且是一種較不安全的下載方法。我們建議你安裝並使用 F-Droid 客戶端。",
        "suggested": "提議",
        "translation": "翻譯",
        "version_info": "<b>版本 {{ package_version }}</b> ({{ package_version_code }})",
        "versions": "版本",
        "website": "網站"
    },
    "permissions": {
        "permdesc_acceptHandovers": "允許該應用程式延續在另一個程式中發起的通話。"
    },
    "sidebars": {
        "donate": {
            "paypal_alt": "透過 PayPal 捐款",
            "via_bank_transfer": "銀行轉帳"
        },
        "lang": {
            "change": "變更"
        },
        "search": {
            "noscript": "需要啟用 JavaScript",
            "search": "搜尋"
        }
    }
}
